{
    "name": "Flag",
    "description": "A simple flag component that supports a heading, content, media, and side",
    "render": true,
    "args": {
        "heading": "text",
        "content": "wysiwyg_short",
        "media": ["image_aria_hidden", "iframe", "iframe_autoplay"],
        "reverse": "bool",
        "classes": ["alignwide", "alignfull"]
    }
}
