{
    "name": "Overlay",
    "description": "An overlay component",
    "render": true,
    "args": {
        "heading": "text",
        "content": "wysiwyg_short",
        "media": ["image", "iframe_autoplay"],
        "classes": ["alignwide", "alignfull"]
    }
}
